[
  {
    "type": "HOUR",
    "name:de_DE": "Stundenkarte",
    "name:en_GB": "hour permit"
  },
  {
    "type": "DAY",
    "name:de_DE": "Tageskarte",
    "name:en_GB": "day permit"
  },
  {
    "type": "WEEK",
    "name:de_DE": "Wochenkarte",
    "name:en_GB": "weekly permit"
  },
  {
    "type": "MONTH",
    "name:de_DE": "Monatskarte",
    "name:en_GB": "monthly permit"
  },
  {
    "type": "SEASON",
    "name:de_DE": "Saisonkarte",
    "name:en_GB": "season permit"
  },
  {
    "type": "NOTIME",
    "name:de_DE": "Ohne Zeitbeschränkung",
    "name:en_GB": "No Time Limit"
  }
]